%YAML 1.1
%TAG !u! tag:unity3d.com,2011:
--- !u!1045 &1
EditorBuildSettings:
  m_ObjectHideFlags: 0
  serializedVersion: 2
  m_Scenes:
  - enabled: 1
    path: Assets/Scenes/Attack-Defend Server.unity
    guid: d72c8f472bece724fb1eb8692fc1e5ce
  m_configObjects: {}
