...Logging started...
0.0498745: Server Started
17.8848068: RespondedAwaitingApproval 4983252765534253860 192.168.11.4
17.8995386: => Outgoing RPC Sent to: SingleClient as SingleClient NetSyncId: -1 Function: UpdateClientID( 4983252765534253860 )

17.9163678: RespondedConnect 4983252765534253860 192.168.11.4
17.9240662: Connected 4983252765534253860 192.168.11.4
17.934394: => Outgoing RPC Sent to: SingleClient as SingleClient NetSyncId: -1 Function: StartVoIP( 1 )

17.951732: AreaChange 4983252765534253860 192.168.11.4
17.9941157: Instantiate 4983252765534253860 192.168.11.4
	NetworkId: 1
	Prefab: Player
	Loc: 0, 0, 0
	Orientation: 0, 0, 0, 1
18.0095525: RPC ServerOnly NetSyncId: -1 Function: UpdateNetID( 1, 0 )

18.10543: LiteSyncUpdate 4983252765534253860 192.168.11.4
29.562947: Server shutdown
